{
  "prepare_queue": {
    "installed": [],
    "uninstalled": []
  },
  "config_munge": {
    "files": {}
  },
  "installed_plugins": {
    "call-number": {
      "PACKAGE_NAME": "com.OneQlikVTS.ionic"
    },
    "com.razorpay.cordova": {
      "PACKAGE_NAME": "com.OneQlikVTS.ionic"
    },
    "com.telerik.plugins.nativepagetransitions": {
      "PACKAGE_NAME": "com.OneQlikVTS.ionic"
    },
    "cordova-plugin-android-permissions": {
      "PACKAGE_NAME": "com.OneQlikVTS.ionic"
    },
    "cordova-plugin-app-version": {
      "PACKAGE_NAME": "com.OneQlikVTS.ionic"
    },
    "cordova-plugin-camera": {
      "PACKAGE_NAME": "com.OneQlikVTS.ionic"
    },
    "cordova-plugin-crop": {
      "PACKAGE_NAME": "com.OneQlikVTS.ionic"
    },
    "cordova-plugin-file": {
      "PACKAGE_NAME": "com.OneQlikVTS.ionic"
    },
    "cordova-plugin-file-transfer": {
      "PACKAGE_NAME": "com.OneQlikVTS.ionic"
    },
    "cordova-plugin-filepath": {
      "PACKAGE_NAME": "com.OneQlikVTS.ionic"
    },
    "cordova-plugin-geolocation": {
      "PACKAGE_NAME": "com.OneQlikVTS.ionic"
    },
    "cordova-plugin-googlemaps": {
      "PACKAGE_NAME": "com.OneQlikVTS.ionic"
    },
    "cordova-plugin-nativegeocoder": {
      "PACKAGE_NAME": "com.OneQlikVTS.ionic"
    },
    "cordova-plugin-networkinterface": {
      "PACKAGE_NAME": "com.OneQlikVTS.ionic"
    },
    "cordova-plugin-splashscreen": {
      "PACKAGE_NAME": "com.OneQlikVTS.ionic"
    },
    "cordova-plugin-statusbar": {
      "PACKAGE_NAME": "com.OneQlikVTS.ionic"
    },
    "cordova-plugin-whitelist": {
      "PACKAGE_NAME": "com.OneQlikVTS.ionic"
    },
    "cordova-plugin-x-socialsharing": {
      "PACKAGE_NAME": "com.OneQlikVTS.ionic"
    },
    "cordova-sms-plugin": {
      "PACKAGE_NAME": "com.OneQlikVTS.ionic"
    },
    "phonegap-plugin-barcodescanner": {
      "PACKAGE_NAME": "com.OneQlikVTS.ionic"
    },
    "cordova-support-google-services": {
      "PACKAGE_NAME": "com.OneQlikVTS.ionic"
    },
    "phonegap-plugin-push": {
      "PACKAGE_NAME": "com.OneQlikVTS.ionic"
    },
    "cordova-plugin-speechrecognition": {
      "PACKAGE_NAME": "com.OneQlikVTS.ionic"
    },
    "cordova-plugin-file-opener2": {
      "PACKAGE_NAME": "com.OneQlikVTS.ionic"
    },
    "cordova-plugin-ionic-keyboard": {
      "PACKAGE_NAME": "com.OneQlikVTS.ionic"
    }
  },
  "dependent_plugins": {
    "es6-promise-plugin": {
      "PACKAGE_NAME": "com.OneQlikVTS.ionic"
    }
  }
}